// Jest Snapshot v1, https://goo.gl/fbAQLP

exports[`(Component) Navigation brand renders correctly 1`] = `
ShallowWrapper {
  "length": 1,
  Symbol(enzyme.__root__): [Circular],
  Symbol(enzyme.__unrendered__): <NavigationBrand />,
  Symbol(enzyme.__renderer__): Object {
    "batchedUpdates": [Function],
    "getNode": [Function],
    "render": [Function],
    "simulateEvent": [Function],
    "unmount": [Function],
  },
  Symbol(enzyme.__node__): Object {
    "instance": null,
    "key": undefined,
    "nodeType": "host",
    "props": Object {
      "children": Array [
        <span>
          <img
            alt="logo"
            src="socrates_no_text_40.png?3bfVcrF"
          />
        </span>,
        <span>
           SoCraTes 2019
        </span>,
      ],
      "className": "navbar-brand",
      "href": "http://localhost:3000/home",
      "title": "Home",
    },
    "ref": null,
    "rendered": Array [
      Object {
        "instance": null,
        "key": undefined,
        "nodeType": "host",
        "props": Object {
          "children": <img
            alt="logo"
            src="socrates_no_text_40.png?3bfVcrF"
          />,
        },
        "ref": null,
        "rendered": Object {
          "instance": null,
          "key": undefined,
          "nodeType": "host",
          "props": Object {
            "alt": "logo",
            "src": "socrates_no_text_40.png?3bfVcrF",
          },
          "ref": null,
          "rendered": null,
          "type": "img",
        },
        "type": "span",
      },
      Object {
        "instance": null,
        "key": undefined,
        "nodeType": "host",
        "props": Object {
          "children": " SoCraTes 2019",
        },
        "ref": null,
        "rendered": " SoCraTes 2019",
        "type": "span",
      },
    ],
    "type": "a",
  },
  Symbol(enzyme.__nodes__): Array [
    Object {
      "instance": null,
      "key": undefined,
      "nodeType": "host",
      "props": Object {
        "children": Array [
          <span>
            <img
              alt="logo"
              src="socrates_no_text_40.png?3bfVcrF"
            />
          </span>,
          <span>
             SoCraTes 2019
          </span>,
        ],
        "className": "navbar-brand",
        "href": "http://localhost:3000/home",
        "title": "Home",
      },
      "ref": null,
      "rendered": Array [
        Object {
          "instance": null,
          "key": undefined,
          "nodeType": "host",
          "props": Object {
            "children": <img
              alt="logo"
              src="socrates_no_text_40.png?3bfVcrF"
            />,
          },
          "ref": null,
          "rendered": Object {
            "instance": null,
            "key": undefined,
            "nodeType": "host",
            "props": Object {
              "alt": "logo",
              "src": "socrates_no_text_40.png?3bfVcrF",
            },
            "ref": null,
            "rendered": null,
            "type": "img",
          },
          "type": "span",
        },
        Object {
          "instance": null,
          "key": undefined,
          "nodeType": "host",
          "props": Object {
            "children": " SoCraTes 2019",
          },
          "ref": null,
          "rendered": " SoCraTes 2019",
          "type": "span",
        },
      ],
      "type": "a",
    },
  ],
  Symbol(enzyme.__options__): Object {
    "adapter": ReactSixteenAdapter {
      "options": Object {
        "enableComponentDidUpdateOnSetState": true,
      },
    },
  },
}
`;
