// Jest Snapshot v1, https://goo.gl/fbAQLP

exports[`(Component) ArrayCellTemplate renders correctly 1`] = `
ShallowWrapper {
  "length": 1,
  Symbol(enzyme.__root__): [Circular],
  Symbol(enzyme.__unrendered__): <ArrayCellTemplate
    values={
      Array [
        1,
        2,
        3,
      ]
    }
  />,
  Symbol(enzyme.__renderer__): Object {
    "batchedUpdates": [Function],
    "getNode": [Function],
    "render": [Function],
    "simulateEvent": [Function],
    "unmount": [Function],
  },
  Symbol(enzyme.__node__): Object {
    "instance": null,
    "key": undefined,
    "nodeType": "host",
    "props": Object {
      "children": Array [
        <div
          className="room-type-bubble d-md-inline-flex"
        >
          1
        </div>,
        <div
          className="room-type-bubble d-md-inline-flex"
        >
          2
        </div>,
        <div
          className="room-type-bubble d-md-inline-flex"
        >
          3
        </div>,
      ],
    },
    "ref": null,
    "rendered": Array [
      Object {
        "instance": null,
        "key": "arrayItem-0",
        "nodeType": "host",
        "props": Object {
          "children": 1,
          "className": "room-type-bubble d-md-inline-flex",
        },
        "ref": null,
        "rendered": 1,
        "type": "div",
      },
      Object {
        "instance": null,
        "key": "arrayItem-1",
        "nodeType": "host",
        "props": Object {
          "children": 2,
          "className": "room-type-bubble d-md-inline-flex",
        },
        "ref": null,
        "rendered": 2,
        "type": "div",
      },
      Object {
        "instance": null,
        "key": "arrayItem-2",
        "nodeType": "host",
        "props": Object {
          "children": 3,
          "className": "room-type-bubble d-md-inline-flex",
        },
        "ref": null,
        "rendered": 3,
        "type": "div",
      },
    ],
    "type": "div",
  },
  Symbol(enzyme.__nodes__): Array [
    Object {
      "instance": null,
      "key": undefined,
      "nodeType": "host",
      "props": Object {
        "children": Array [
          <div
            className="room-type-bubble d-md-inline-flex"
          >
            1
          </div>,
          <div
            className="room-type-bubble d-md-inline-flex"
          >
            2
          </div>,
          <div
            className="room-type-bubble d-md-inline-flex"
          >
            3
          </div>,
        ],
      },
      "ref": null,
      "rendered": Array [
        Object {
          "instance": null,
          "key": "arrayItem-0",
          "nodeType": "host",
          "props": Object {
            "children": 1,
            "className": "room-type-bubble d-md-inline-flex",
          },
          "ref": null,
          "rendered": 1,
          "type": "div",
        },
        Object {
          "instance": null,
          "key": "arrayItem-1",
          "nodeType": "host",
          "props": Object {
            "children": 2,
            "className": "room-type-bubble d-md-inline-flex",
          },
          "ref": null,
          "rendered": 2,
          "type": "div",
        },
        Object {
          "instance": null,
          "key": "arrayItem-2",
          "nodeType": "host",
          "props": Object {
            "children": 3,
            "className": "room-type-bubble d-md-inline-flex",
          },
          "ref": null,
          "rendered": 3,
          "type": "div",
        },
      ],
      "type": "div",
    },
  ],
  Symbol(enzyme.__options__): Object {
    "adapter": ReactSixteenAdapter {
      "options": Object {
        "enableComponentDidUpdateOnSetState": true,
      },
    },
  },
}
`;
